\relax 
\providecommand\hyper@newdestlabel[2]{}
\providecommand\HyperFirstAtBeginDocument{\AtBeginDocument}
\HyperFirstAtBeginDocument{\ifx\hyper@anchor\@undefined
\global\let\oldcontentsline\contentsline
\gdef\contentsline#1#2#3#4{\oldcontentsline{#1}{#2}{#3}}
\global\let\oldnewlabel\newlabel
\gdef\newlabel#1#2{\newlabelxx{#1}#2}
\gdef\newlabelxx#1#2#3#4#5#6{\oldnewlabel{#1}{{#2}{#3}}}
\AtEndDocument{\ifx\hyper@anchor\@undefined
\let\contentsline\oldcontentsline
\let\newlabel\oldnewlabel
\fi}
\fi}
\global\let\hyper@last\relax 
\gdef\HyperFirstAtBeginDocument#1{#1}
\providecommand\HyField@AuxAddToFields[1]{}
\providecommand\HyField@AuxAddToCoFields[2]{}
\select@language{english}
\@writefile{toc}{\select@language{english}}
\@writefile{lof}{\select@language{english}}
\@writefile{lot}{\select@language{english}}
\@writefile{toc}{\contentsline {section}{\numberline {1}Introduction}{1}{section.1}}
\@writefile{toc}{\contentsline {section}{\numberline {2}Some examples to get started}{1}{section.2}}
\@writefile{toc}{\contentsline {subsection}{\numberline {2.1}How to add Comments}{1}{subsection.2.1}}
\@writefile{toc}{\contentsline {subsection}{\numberline {2.2}How to include Figures}{1}{subsection.2.2}}
\@writefile{toc}{\contentsline {subsection}{\numberline {2.3}How to add Tables}{1}{subsection.2.3}}
\@writefile{lof}{\contentsline {figure}{\numberline {1}{\ignorespaces This frog was uploaded via the project menu.}}{1}{figure.1}}
\newlabel{fig:frog}{{1}{1}{This frog was uploaded via the project menu}{figure.1}{}}
\citation{greenwade93}
\bibstyle{alpha}
\bibdata{sample}
\bibcite{greenwade93}{Gre93}
\@writefile{lot}{\contentsline {table}{\numberline {1}{\ignorespaces An example table.}}{2}{table.1}}
\newlabel{tab:widgets}{{1}{2}{An example table}{table.1}{}}
\@writefile{toc}{\contentsline {subsection}{\numberline {2.4}How to write Mathematics}{2}{subsection.2.4}}
\@writefile{toc}{\contentsline {subsection}{\numberline {2.5}How to create Sections and Subsections}{2}{subsection.2.5}}
\@writefile{toc}{\contentsline {subsection}{\numberline {2.6}How to add Lists}{2}{subsection.2.6}}
\@writefile{toc}{\contentsline {subsection}{\numberline {2.7}How to add Citations and a References List}{2}{subsection.2.7}}
